<svg width="1440" height="694" viewBox="0 0 1440 694" fill="none" xmlns="http://www.w3.org/2000/svg">
<path d="M1569.52 72.0002L0 72.0002L0 168C224.535 287.5 360.747 106.78 552.156 142.664C1035.9 233.352 975.169 694 1255.97 694C1536.78 694 1591.92 159.157 1569.52 72.0002Z" fill="#F9D8BB"/>
<path d="M1569.05 -26.9998L0.000976562 -26.9997L0.000976562 160C204.867 265 343.565 94.5292 534.917 134.982C1018.51 237.218 954.297 649.788 1249.97 679C1545.63 708.212 1591.45 71.2551 1569.05 -26.9998Z" fill="url(#paint0_linear)" fill-opacity="0.5"/>
<path d="M1569.05 -50.9998L0.000976562 -50.9997L0.000976562 138C257.313 263 343.565 70.5292 534.917 110.982C1018.51 213.218 942.294 620.807 1237.96 650.019C1533.63 679.231 1591.45 47.2551 1569.05 -50.9998Z" fill="url(#paint1_linear)"/>
<defs>
<linearGradient id="paint0_linear" x1="-241.216" y1="821.25" x2="1274.22" y2="1419.22" gradientUnits="userSpaceOnUse">
<stop stop-color="#FFBF61"/>
<stop offset="0.758361" stop-color="#FE8618"/>
<stop offset="1" stop-color="#FF396D"/>
</linearGradient>
<linearGradient id="paint1_linear" x1="-241.216" y1="797.25" x2="1274.22" y2="1395.22" gradientUnits="userSpaceOnUse">
<stop stop-color="#FFBF61"/>
<stop offset="0.758361" stop-color="#FE8618"/>
<stop offset="1" stop-color="#FF396D"/>
</linearGradient>
</defs>
</svg>
