<svg width="54" height="28" viewBox="0 0 54 28" fill="none" xmlns="http://www.w3.org/2000/svg">
<path d="M6.11732 5.54492H13.5396C13.9392 5.54492 14.2631 5.86885 14.2631 6.26841C14.2631 6.66798 13.9392 6.99191 13.5396 6.99191H6.11732C5.71776 6.99191 5.39383 6.66798 5.39383 6.26841C5.39383 5.86885 5.71776 5.54492 6.11732 5.54492Z" fill="#E87D1B" stroke="#E87D1B"/>
<path d="M42.6024 5.54492H47.6688C47.6857 5.54492 47.7573 5.55462 47.8464 5.68517C47.9338 5.81322 48.004 6.01792 48.004 6.26841C48.004 6.51891 47.9338 6.72361 47.8464 6.85166C47.7573 6.98221 47.6857 6.99191 47.6688 6.99191H42.6024C42.5854 6.99191 42.5139 6.98221 42.4248 6.85166C42.3374 6.72361 42.2672 6.51891 42.2672 6.26841C42.2672 6.01792 42.3374 5.81322 42.4248 5.68517C42.5139 5.55462 42.5854 5.54492 42.6024 5.54492Z" fill="#E87D1B" stroke="#E87D1B"/>
<path d="M29.3097 10.9419H5.8653C5.70631 10.9419 5.39383 11.1521 5.39383 11.6654C5.39383 12.1786 5.70631 12.3889 5.8653 12.3889H29.3098C29.4687 12.3889 29.7812 12.1786 29.7812 11.6654L29.3097 10.9419ZM29.3097 10.9419C29.4687 10.9419 29.7812 11.1521 29.7812 11.6654L29.3097 10.9419Z" fill="#E87D1B" stroke="#E87D1B"/>
<path d="M30.3139 16.1626H5.90526C5.70766 16.1626 5.39383 16.3933 5.39383 16.8861C5.39383 17.3789 5.70766 17.6096 5.90526 17.6096H30.314C30.5116 17.6096 30.8254 17.3789 30.8254 16.8861L30.3139 16.1626ZM30.3139 16.1626C30.5115 16.1626 30.8253 16.3932 30.8254 16.8861L30.3139 16.1626Z" fill="#E87D1B" stroke="#E87D1B"/>
<rect x="1" y="1" width="51.2532" height="25.1487" rx="1" stroke="#E87D1B" stroke-width="2"/>
<rect x="5.7209" y="22.4277" width="1.08836" height="1.08836" rx="0.54418" fill="#E87D1B" stroke="#E87D1B"/>
<rect x="8.85344" y="22.4277" width="1.08836" height="1.08836" rx="0.54418" fill="#E87D1B" stroke="#E87D1B"/>
<rect x="11.986" y="22.4277" width="1.08836" height="1.08836" rx="0.54418" fill="#E87D1B" stroke="#E87D1B"/>
<rect x="15.1185" y="22.4277" width="1.08836" height="1.08836" rx="0.54418" fill="#E87D1B" stroke="#E87D1B"/>
<rect x="18.2511" y="22.4277" width="1.08836" height="1.08836" rx="0.54418" fill="#E87D1B" stroke="#E87D1B"/>
<path d="M38.1154 17.8744L38.1163 17.8734L38.1154 17.8744Z" fill="#E87D1B" stroke="#E87D1B"/>
<path d="M43.811 17.8744L43.8119 17.8734L43.811 17.8744Z" fill="#E87D1B" stroke="#E87D1B"/>
<path d="M40.9632 17.8744L40.9641 17.8734L40.9632 17.8744Z" fill="#E87D1B" stroke="#E87D1B"/>
<path d="M46.6588 17.8744L46.6596 17.8734L46.6588 17.8744Z" fill="#E87D1B" stroke="#E87D1B"/>
</svg>
