<svg width="312" height="84" viewBox="0 0 312 84" fill="none" xmlns="http://www.w3.org/2000/svg">
<mask id="mask0" mask-type="alpha" maskUnits="userSpaceOnUse" x="-78" y="-243" width="391" height="327">
<path d="M240.208 -243L271.207 -111.988L-6.09991 83.0037L-37.0989 -48.008L240.208 -243Z" fill="#C4C4C4"/>
</mask>
<g mask="url(#mask0)">
<path d="M171.768 -27.3965L36.4071 -115.587" stroke="#F6CBA4" stroke-width="2"/>
<path d="M159.497 -18.7686L24.1366 -106.959" stroke="#F6CBA4" stroke-width="2"/>
<path d="M147.227 -10.1404L11.866 -98.3307" stroke="#F6CBA4" stroke-width="2"/>
<path d="M134.957 -1.51245L-0.403486 -89.7028" stroke="#F6CBA4" stroke-width="2"/>
<path d="M122.687 7.11548L-12.674 -81.0748" stroke="#F6CBA4" stroke-width="2"/>
<path d="M110.416 15.7434L-24.9445 -72.4469" stroke="#F6CBA4" stroke-width="2"/>
<path d="M98.1465 24.3713L-37.214 -63.819" stroke="#F6CBA4" stroke-width="2"/>
<path d="M85.876 32.9993L-49.4845 -55.191" stroke="#F6CBA4" stroke-width="2"/>
<path d="M73.6055 41.6272L-61.755 -46.5631" stroke="#F6CBA4" stroke-width="2"/>
<path d="M61.3359 50.2554L-74.0246 -37.9349" stroke="#F6CBA4" stroke-width="2"/>
<path d="M49.0654 58.8833L-86.2951 -29.307" stroke="#F6CBA4" stroke-width="2"/>
<path d="M36.7949 67.5112L-98.5656 -20.6791" stroke="#F6CBA4" stroke-width="2"/>
<path d="M24.5244 76.1392L-110.836 -12.0512" stroke="#F6CBA4" stroke-width="2"/>
<path d="M12.2549 84.7671L-123.106 -3.42322" stroke="#F6CBA4" stroke-width="2"/>
</g>
</svg>
