<svg width="513" height="225" viewBox="0 0 513 225" fill="none" xmlns="http://www.w3.org/2000/svg">
<g opacity="0.5">
<mask id="mask0" mask-type="alpha" maskUnits="userSpaceOnUse" x="391" y="164" width="122" height="389">
<path d="M391.516 164L512.901 214V553L391.516 503V164Z" fill="#C4C4C4"/>
</mask>
<g mask="url(#mask0)">
<path d="M524.553 119L378.892 179" stroke="#F6CBA4" stroke-width="2"/>
<path d="M524.553 134L378.892 194" stroke="#F6CBA4" stroke-width="2"/>
<path d="M524.553 149L378.892 209" stroke="#F6CBA4" stroke-width="2"/>
<path d="M524.553 164L378.892 224" stroke="#F6CBA4" stroke-width="2"/>
<path d="M524.553 179L378.892 239" stroke="#F6CBA4" stroke-width="2"/>
<path d="M524.553 194L378.892 254" stroke="#F6CBA4" stroke-width="2"/>
<path d="M524.553 209L378.892 269" stroke="#F6CBA4" stroke-width="2"/>
<path d="M524.553 224L378.892 284" stroke="#F6CBA4" stroke-width="2"/>
</g>
</g>
<g opacity="0.5">
<mask id="mask1" mask-type="alpha" maskUnits="userSpaceOnUse" x="129" y="85" width="122" height="389">
<path d="M129.158 85L250.543 135V474L129.158 424V85Z" fill="#C4C4C4"/>
</mask>
<g mask="url(#mask1)">
<path d="M262.196 40L116.534 100" stroke="#F6CBA4" stroke-width="2"/>
<path d="M262.196 55L116.534 115" stroke="#F6CBA4" stroke-width="2"/>
<path d="M262.196 70L116.534 130" stroke="#F6CBA4" stroke-width="2"/>
<path d="M262.196 85L116.534 145" stroke="#F6CBA4" stroke-width="2"/>
<path d="M262.196 100L116.534 160" stroke="#F6CBA4" stroke-width="2"/>
<path d="M262.196 115L116.534 175" stroke="#F6CBA4" stroke-width="2"/>
<path d="M262.196 130L116.534 190" stroke="#F6CBA4" stroke-width="2"/>
<path d="M262.196 145L116.534 205" stroke="#F6CBA4" stroke-width="2"/>
<path d="M262.196 160L116.534 220" stroke="#F6CBA4" stroke-width="2"/>
<path d="M262.196 175L116.534 235" stroke="#F6CBA4" stroke-width="2"/>
<path d="M262.196 190L116.534 250" stroke="#F6CBA4" stroke-width="2"/>
<path d="M262.196 205L116.534 265" stroke="#F6CBA4" stroke-width="2"/>
<path d="M262.196 220L116.534 280" stroke="#F6CBA4" stroke-width="2"/>
</g>
</g>
<g opacity="0.5">
<mask id="mask2" mask-type="alpha" maskUnits="userSpaceOnUse" x="263" y="79" width="122" height="389">
<path d="M263.333 79L384.718 129V468L263.333 418V79Z" fill="#C4C4C4"/>
</mask>
<g mask="url(#mask2)">
<path d="M396.371 34L250.709 94" stroke="#CD9695" stroke-width="2"/>
<path d="M396.371 49L250.709 109" stroke="#CD9695" stroke-width="2"/>
<path d="M396.371 64L250.709 124" stroke="#CD9695" stroke-width="2"/>
<path d="M396.371 79L250.709 139" stroke="#CD9695" stroke-width="2"/>
<path d="M396.371 94L250.709 154" stroke="#CD9695" stroke-width="2"/>
<path d="M396.371 109L250.709 169" stroke="#CD9695" stroke-width="2"/>
<path d="M396.371 124L250.709 184" stroke="#CD9695" stroke-width="2"/>
<path d="M396.371 139L250.709 199" stroke="#CD9695" stroke-width="2"/>
<path d="M396.371 154L250.709 214" stroke="#CD9695" stroke-width="2"/>
<path d="M396.371 169L250.709 229" stroke="#CD9695" stroke-width="2"/>
<path d="M396.371 184L250.709 244" stroke="#CD9695" stroke-width="2"/>
<path d="M396.371 199L250.709 259" stroke="#CD9695" stroke-width="2"/>
<path d="M396.371 214L250.709 274" stroke="#CD9695" stroke-width="2"/>
</g>
</g>
<g opacity="0.5">
<mask id="mask3" mask-type="alpha" maskUnits="userSpaceOnUse" x="0" y="0" width="123" height="389">
<path d="M0.976074 0L122.361 50V389L0.976074 339V0Z" fill="#C4C4C4"/>
</mask>
<g mask="url(#mask3)">
<path d="M134.014 -45L-11.6479 15" stroke="#CD9695" stroke-width="2"/>
<path d="M134.014 -30L-11.6479 30" stroke="#CD9695" stroke-width="2"/>
<path d="M134.014 -15L-11.6479 45" stroke="#CD9695" stroke-width="2"/>
<path d="M134.014 0L-11.6479 60" stroke="#CD9695" stroke-width="2"/>
<path d="M134.014 15L-11.6479 75" stroke="#CD9695" stroke-width="2"/>
<path d="M134.014 30L-11.6479 90" stroke="#CD9695" stroke-width="2"/>
<path d="M134.014 45L-11.6479 105" stroke="#CD9695" stroke-width="2"/>
<path d="M134.014 60L-11.6479 120" stroke="#CD9695" stroke-width="2"/>
<path d="M134.014 75L-11.6479 135" stroke="#CD9695" stroke-width="2"/>
<path d="M134.014 90L-11.6479 150" stroke="#CD9695" stroke-width="2"/>
<path d="M134.014 105L-11.6479 165" stroke="#CD9695" stroke-width="2"/>
<path d="M134.014 120L-11.6479 180" stroke="#CD9695" stroke-width="2"/>
<path d="M134.014 135L-11.6479 195" stroke="#CD9695" stroke-width="2"/>
<path d="M134.014 150L-11.6479 210" stroke="#CD9695" stroke-width="2"/>
<path d="M134.014 165L-11.6479 225" stroke="#CD9695" stroke-width="2"/>
<path d="M134.014 180L-11.6479 240" stroke="#CD9695" stroke-width="2"/>
<path d="M134.014 195L-11.6479 255" stroke="#CD9695" stroke-width="2"/>
<path d="M134.014 210L-11.6479 270" stroke="#CD9695" stroke-width="2"/>
<path d="M134.014 225L-11.6479 285" stroke="#CD9695" stroke-width="2"/>
</g>
</g>
</svg>
