<svg width="139" height="296" viewBox="0 0 139 296" fill="none" xmlns="http://www.w3.org/2000/svg">
<g opacity="0.4">
<path d="M271.332 165.378L135.972 77.1874" stroke="#BD3333" stroke-width="2"/>
<path d="M259.062 174.006L123.702 85.8153" stroke="#BD3333" stroke-width="2"/>
<path d="M246.792 182.634L111.431 94.4432" stroke="#BD3333" stroke-width="2"/>
<path d="M234.521 191.261L99.161 103.071" stroke="#BD3333" stroke-width="2"/>
<path d="M222.252 199.889L86.8914 111.699" stroke="#BD3333" stroke-width="2"/>
<path d="M209.981 208.517L74.6209 120.327" stroke="#BD3333" stroke-width="2"/>
<path d="M197.711 217.145L62.3504 128.955" stroke="#BD3333" stroke-width="2"/>
<path d="M185.441 225.773L50.0809 137.583" stroke="#BD3333" stroke-width="2"/>
<path d="M173.171 234.401L37.8104 146.211" stroke="#BD3333" stroke-width="2"/>
<path d="M160.9 243.029L25.5399 154.839" stroke="#BD3333" stroke-width="2"/>
<path d="M148.63 251.657L13.2694 163.467" stroke="#BD3333" stroke-width="2"/>
<path d="M136.36 260.285L0.999834 172.095" stroke="#BD3333" stroke-width="2"/>
</g>
</svg>
