<svg width="118" height="53" viewBox="0 0 118 53" fill="none" xmlns="http://www.w3.org/2000/svg">
<mask id="mask0" mask-type="alpha" maskUnits="userSpaceOnUse" x="46" y="0" width="344" height="213">
<path d="M361.581 212.438L389.851 123.749L75.2436 0.642846L46.9743 89.3322L361.581 212.438Z" fill="#C4C4C4"/>
</mask>
<g mask="url(#mask0)">
<path d="M262.453 64.3218L117.164 127.172" stroke="#9BB4C7" stroke-width="2"/>
<path d="M248.532 58.8745L103.244 121.724" stroke="#9BB4C7" stroke-width="2"/>
<path d="M234.611 53.4272L89.3228 116.277" stroke="#9BB4C7" stroke-width="2"/>
<path d="M220.691 47.98L75.4022 110.83" stroke="#9BB4C7" stroke-width="2"/>
<path d="M206.77 42.5332L61.4815 105.383" stroke="#9BB4C7" stroke-width="2"/>
<path d="M192.849 37.0859L47.5608 99.9359" stroke="#9BB4C7" stroke-width="2"/>
<path d="M178.929 31.6387L33.6402 94.4886" stroke="#9BB4C7" stroke-width="2"/>
<path d="M165.008 26.1914L19.7195 89.0413" stroke="#9BB4C7" stroke-width="2"/>
<path d="M151.087 20.7441L5.79885 83.5941" stroke="#9BB4C7" stroke-width="2"/>
<path d="M137.167 15.2974L-8.12178 78.1473" stroke="#9BB4C7" stroke-width="2"/>
<path d="M123.246 9.8501L-22.0425 72.7" stroke="#9BB4C7" stroke-width="2"/>
<path d="M109.325 4.40283L-35.9631 67.2527" stroke="#9BB4C7" stroke-width="2"/>
<path d="M95.4047 -1.04443L-49.8838 61.8055" stroke="#9BB4C7" stroke-width="2"/>
</g>
</svg>
