<svg width="122" height="61" viewBox="0 0 122 61" fill="none" xmlns="http://www.w3.org/2000/svg">
<mask id="mask0" mask-type="alpha" maskUnits="userSpaceOnUse" x="-255" y="0" width="333" height="221">
<path d="M43.619 0.696777L77.9844 88.4732L-219.945 220.494L-254.31 132.718L43.619 0.696777Z" fill="#C4C4C4"/>
</mask>
<g mask="url(#mask0)">
<path d="M168.992 58.0337L22.2923 -0.564839" stroke="#F6CBA4" stroke-width="2"/>
<path d="M155.81 63.875L9.10963 5.27647" stroke="#F6CBA4" stroke-width="2"/>
<path d="M142.627 69.7168L-4.07306 11.1183" stroke="#F6CBA4" stroke-width="2"/>
<path d="M129.444 75.5586L-17.2558 16.9601" stroke="#F6CBA4" stroke-width="2"/>
<path d="M116.262 81.3999L-30.4385 22.8014" stroke="#F6CBA4" stroke-width="2"/>
<path d="M103.079 87.2417L-43.6212 28.6432" stroke="#F6CBA4" stroke-width="2"/>
<path d="M89.8961 93.0835L-56.8038 34.485" stroke="#F6CBA4" stroke-width="2"/>
<path d="M76.7134 98.9248L-69.9865 40.3263" stroke="#F6CBA4" stroke-width="2"/>
<path d="M63.5307 104.767L-83.1692 46.1681" stroke="#F6CBA4" stroke-width="2"/>
<path d="M50.348 110.608L-96.352 52.0099" stroke="#F6CBA4" stroke-width="2"/>
<path d="M37.1653 116.45L-109.535 57.8512" stroke="#F6CBA4" stroke-width="2"/>
<path d="M23.9826 122.292L-122.717 63.693" stroke="#F6CBA4" stroke-width="2"/>
<path d="M10.7999 128.133L-135.9 69.5348" stroke="#F6CBA4" stroke-width="2"/>
</g>
</svg>
