<svg width="181" height="235" viewBox="0 0 181 235" fill="none" xmlns="http://www.w3.org/2000/svg">
<mask id="mask0" mask-type="alpha" maskUnits="userSpaceOnUse" x="0" y="-271" width="340" height="448">
<path d="M0.11084 176.257L183.438 169.437L339.109 -270.877L155.782 -264.057L0.11084 176.257Z" fill="#C4C4C4"/>
</mask>
<g mask="url(#mask0)">
<path d="M155.209 298.409L-9.67899 150.729" stroke="#F6CBA4" stroke-width="2"/>
<path d="M162.097 278.926L-2.79081 131.246" stroke="#F6CBA4" stroke-width="2"/>
<path d="M168.985 259.443L4.09737 111.763" stroke="#F6CBA4" stroke-width="2"/>
<path d="M175.873 239.96L10.9851 92.2804" stroke="#F6CBA4" stroke-width="2"/>
<path d="M182.761 220.477L17.8733 72.7975" stroke="#F6CBA4" stroke-width="2"/>
<path d="M189.649 200.994L24.7614 53.3146" stroke="#F6CBA4" stroke-width="2"/>
<path d="M196.538 181.511L31.6496 33.8316" stroke="#F6CBA4" stroke-width="2"/>
<path d="M203.426 162.028L38.5378 14.3487" stroke="#F6CBA4" stroke-width="2"/>
<path d="M210.314 142.546L45.426 -5.13418" stroke="#F6CBA4" stroke-width="2"/>
<path d="M217.202 123.063L52.3137 -24.6171" stroke="#F6CBA4" stroke-width="2"/>
<path d="M224.09 103.58L59.2019 -44.1" stroke="#F6CBA4" stroke-width="2"/>
<path d="M230.978 84.0968L66.09 -63.5829" stroke="#F6CBA4" stroke-width="2"/>
<path d="M237.866 64.6139L72.9782 -83.0658" stroke="#F6CBA4" stroke-width="2"/>
<path d="M244.754 45.131L79.8664 -102.549" stroke="#F6CBA4" stroke-width="2"/>
<path d="M251.643 25.6481L86.7546 -122.032" stroke="#F6CBA4" stroke-width="2"/>
<path d="M258.531 6.16516L93.6428 -141.515" stroke="#F6CBA4" stroke-width="2"/>
</g>
</svg>
