<svg width="1440" height="444" viewBox="0 0 1440 444" fill="none" xmlns="http://www.w3.org/2000/svg">
<path d="M1440 443.135V0C1440 0 1284.18 151.1 903 297.5C527.74 441.628 16.1666 443.123 0.37474 443.135H1440Z" fill="url(#paint0_linear)"/>
<path opacity="0.5" d="M1439.79 4C1439.79 4 1480.65 232.242 1114.5 347C748.345 461.758 244 440 244 440L1439.79 444V4Z" fill="url(#paint1_linear)"/>
<defs>
<linearGradient id="paint0_linear" x1="-220.768" y1="536.5" x2="988.042" y2="1226.71" gradientUnits="userSpaceOnUse">
<stop stop-color="#9C2F2C"/>
<stop offset="0.709765" stop-color="#752021"/>
<stop offset="1" stop-color="#390000"/>
</linearGradient>
<linearGradient id="paint1_linear" x1="-7.00012" y1="444" x2="691.383" y2="-531.792" gradientUnits="userSpaceOnUse">
<stop offset="0.182292" stop-color="#9C2F2C"/>
<stop offset="0.630208" stop-color="#BD3333"/>
<stop offset="0.984375" stop-color="#8C0101"/>
</linearGradient>
</defs>
</svg>
